289384 930887 525
692778 636916 442
747794 238336 509
885387 760493 525
516650 641422 509
202363 490028 449
368691 520060 470
897764 513927 525
180541 383427 443
89173 455737 449
5212 595369 470
702568 956430 525
465783 21531 449
722863 665124 504
174068 703136 509
513930 979803 525
634023 723059 504
133070 898168 525
961394 18457 525
175012 478043 449
176230 377374 443
484422 544920 470
413785 898538 525
575199 594325 434
798316 664371 504
566414 803527 509
776092 268981 509
759957 241874 509
806863 999171 525
906997 497282 525
702306 420926 509
477085 336328 449
660337 126506 509
750847 621730 509
661314 925858 525
616125 353896 470
819583 100546 509
898815 233368 525
515435 990365 525
344044 313751 384
171088 426809 449
117277 947179 525
695789 393585 509
705404 502652 509
392755 612400 470
999933 95061 525
549677 993369 525
947740 210013 525
636227 698587 442
348095 297540 441
140796 480571 449
651435 960379 525
97468 66602 351
710098 612903 509
573318 570493 372
926653 260757 525
997302 560281 525
724287 209442 509
953866 429690 525
228445 346620 443
558441 744730 509
958032 108118 525
738098 905772 525
834482 890676 525
120710 698928 509
704568 777857 504
179498 872354 525
254587 276966 407
455307 964684 525
406220 28625 443
51529 332872 443
805733 48830 509
409504 530020 470
258271 363369 441
959709 486716 525
226341 518150 470
747797 700724 504
142619 2246 375
122847 493452 449
892922 243556 525
192380 597489 470
537765 888229 525
469842 792351 509
165194 441501 449
757035 87765 509
470125 324915 449
936988 275857 525
373744 346492 410
322228 148366 443
709860 281937 509
151433 452552 449
316438 899229 525
153276 975408 525
901475 276122 525
468859 794396 509
36030 661238 509
908236 573794 525
65819 894429 525
366144 231012 441
335929 639530 509
318777 322405 371
964444 255764 525
114614 854539 525
118607 436841 449
2905 344819 443
235129 670689 509
797370 67918 509
569918 466997 470
43325 987744 525
259471 512184 470
298491 295500 327
689773 206726 509
385645 755591 509
617506 268140 470
502955 469787 426
907670 338083 525
308543 388465 441
110198 939508 525
759356 228805 509
376349 278612 441
573623 127829 470
949300 887344 507
195747 35569 383
354341 755423 509
23312 613811 470
267606 321802 407
425662 473731 444
44879 811306 509
229321 178737 386
79445 248627 443
648523 503466 509
586709 473417 470
408283 213259 443
412925 167638 449
442063 305625 449
962601 532037 525
433453 911900 525
419380 145551 449
947469 290072 525
900974 487132 525
903882 684931 525
808934 845895 525
158661 370164 443
657200 387982 509
548900 252997 470
152960 713774 509
272814 739669 509
187191 681096 509
952927 116467 525
365085 911341 525
422091 327685 449
443377 855543 525
755937 379108 509
517446 219757 470
669180 418419 509
706888 89413 509
103349 32173 351
451660 262010 449
402337 625211 470
166343 467588 449
878207 319302 525
697714 667373 442
575322 401256 470
864820 44600 525
517722 229905 470
955940 939812 414
73941 915668 525
311706 346229 441
811128 829151 450
565985 996659 525
763921 789225 468
602423 867270 525
821397 54082 509
645631 740085 504
679293 811973 504
207673 73851 383
647626 905386 525
741223 739300 393
306641 606043 470
783899 340714 509
352299 256191 441
280525 942591 525
688210 108582 509
288820 499337 449
937733 371156 525
495995 218005 449
160380 614770 470
85274 981777 525
668851 247256 509
721861 348143 509
575580 445885 470
421994 223206 449
867622 679568 525
962505 690614 525
801962 262755 509
31327 154260 375
518945 828203 509
613203 723507 509
936785 902022 476
222843 390869 443
789529 235190 509
608873 949909 525
849959 210499 525
448037 518809 470
457754 686249 509
383304 33334 443
132134 321649 443
772891 999755 525
517568 251747 470
690369 319530 509
514501 238047 470
473789 549798 470
66250 86991 351
273304 3034 443
505364 12498 449
910254 294893 525
247687 519126 470
761153 613997 509
245976 209189 443
649158 703730 442
895437 32461 525
253415 543922 470
870461 26305 525
60029 388028 443
278051 266749 407
707557 308903 509
504795 697698 509
858700 571044 525
301040 132003 443
90429 806404 509
144501 682 375
617648 908539 525
36160 895152 525
522536 282135 470
104340 171693 383
502216 516128 470
720505 755630 424
60050 590965 470
298286 636430 509
495344 576336 470
903178 202901 525
885239 407972 525
416950 260290 449
495368 717989 509
392293 585796 470
40744 53145 340
102830 658391 509
961683 655341 525
553542 570 470
453827 174233 449
172262 956043 525
690361 409118 509
228024 266762 443
82 526310 470
903191 495426 525
618997 806368 509
214678 504235 449
730691 631627 504
764525 226058 509
349615 673169 509
328206 390359 441
726313 947387 525
565101 204347 470
602727 634995 509
204917 56553 383
325579 893530 525
528947 532291 346
302648 756971 509
799052 819081 450
799632 218594 509
830858 418628 509
541313 561887 452
439215 788356 509
193513 720091 509
14413 59480 340
909611 858970 445
966190 152275 525
806356 47642 509
356621 925434 525
198988 77889 383
498339 524567 470
487771 27285 449
56857 790418 509
300607 372261 441
125850 100238 354
107206 473060 449
35218 648519 509
34946 990784 525
436874 228459 449
710874 967638 525
804290 620484 509
826608 770479 468
772758 149315 509
334472 645730 509
591101 533460 452
723619 89439 509
58026 211389 383
633075 631234 385
518158 933682 525
3494 160359 383
550271 110700 470
633418 101840 509
275570 668364 509
92623 228795 386
413174 319848 449
196432 217463 386
456683 539391 470
504293 745792 509
205058 355116 443
391522 796158 509
888575 631492 525
401948 462952 449
359232 35022 443
610538 393741 470
485055 614031 470
554099 35326 470
241082 187517 443
653517 33003 509
372232 746140 509
261797 785405 509
582339 974581 525
519219 39022 470
513971 539863 439
784813 235380 509
894978 692686 525
31537 299905 443
324177 433484 449
279208 199760 443
984858 889745 507
593500 469912 470
20128 663951 509
505237 777561 509
367819 675106 509
810564 740050 468
421245 588712 470
41806 519935 470
563292 77376 470
558956 593615 434
133590 343769 443
828994 544919 509
552806 376883 470
844823 876983 432
326718 124031 443
593094 311575 470
530127 186594 470
781487 550254 509
850544 803075 525
327815 734714 509
478180 138378 449
474763 415776 444
727089 32920 509
935711 806733 525
110295 11018 354
400347 760236 509
871138 745692 525
305154 423944 449
122574 666329 509
300926 449292 449
306711 894019 525
277218 836837 509
596964 575056 434
387091 963859 525
378131 714905 509
698572 372662 509
369634 689686 509
304790 613074 470
722605 756852 424
419806 349251 449
767869 336504 509
109486 639007 509
82196 414640 449
62950 721121 509
80968 880227 525
686764 387678 509
290597 963982 525
740866 887561 525
539037 127956 470
367771 433519 449
359212 66343 443
322533 245197 407
272380 627322 509
858271 994985 507
384173 794428 509
344235 152041 443
647284 970073 525
307399 245831 407
901064 370348 525
966951 982031 458
250574 653715 509
886060 57523 525
134048 626925 509
945083 189436 525
271233 829205 509
622955 630444 509
411899 945487 525
875641 684279 525
89160 250263 443
679263 989684 525
561042 539849 452
141724 208325 383
26273 449123 449
454155 927336 525
335822 937458 525
909366 102748 525
591172 311777 470
160270 725219 509
938702 621704 525
914654 209934 525
450908 53960 449
356729 862807 525
515798 748721 509
547085 121309 470
515335 742699 509
110992 76377 354
798899 252716 509
801053 825172 450
218190 771560 509
752507 554011 509
709017 178225 509
173110 816540 509
490001 333379 449
58110 945054 525
955082 489115 525
671339 405990 509
59427 28068 340
785148 575224 509
776788 332232 509
696533 292123 509
591282 323876 470
884851 390180 525
576591 202255 470
215351 311132 443
973814 967858 458
381495 199182 443
146082 554604 470
15721 152434 375
887983 590182 525
97488 359416 443
79297 768826 509
765405 138723 509
796893 550552 509
230298 90033 386
399135 443182 449
898507 990416 507
767058 299709 509
380596 860000 525
501963 112298 449
687484 475777 509
80155 68978 351
191310 742588 509
139933 723383 509
895022 544267 525
313564 508861 449
903683 909212 445
277686 669087 509
564286 590931 434
735991 794584 468
197315 651477 509
754117 95821 509
641893 37526 509
395529 538840 470
897526 897491 326
651137 101361 509
889619 247644 525
170338 80929 383
506583 826622 509
804311 917956 525
370889 634226 509
426816 274571 449
543438 220854 470
460009 107723 449
811784 712351 468
418658 9098 449
363828 689127 509
621270 522072 452
726652 533150 509
60911 140529 354
430640 228399 449
241889 836611 509
992394 928578 507
433891 498977 444
755200 754553 318
416932 126088 449
388778 360100 423
400658 448567 449
580953 377018 470
72642 392736 443
89369 491299 449
918185 453196 525
696777 55806 509
975267 423429 525
588955 552529 434
80309 19594 351
297279 322198 384
372556 289673 441
250775 806446 509
305001 522326 470
560998 238284 470
648413 466128 509
598383 565422 434